<?xml version="1.0" encoding="UTF-8" standalone="no"?>
<!-- Created with Inkscape (http://www.inkscape.org/) -->

<svg
   xmlns:dc="http://purl.org/dc/elements/1.1/"
   xmlns:cc="http://creativecommons.org/ns#"
   xmlns:rdf="http://www.w3.org/1999/02/22-rdf-syntax-ns#"
   xmlns:svg="http://www.w3.org/2000/svg"
   xmlns="http://www.w3.org/2000/svg"
   xmlns:xlink="http://www.w3.org/1999/xlink"
   xmlns:sodipodi="http://sodipodi.sourceforge.net/DTD/sodipodi-0.dtd"
   xmlns:inkscape="http://www.inkscape.org/namespaces/inkscape"
   width="85mm"
   height="54mm"
   id="svg2985"
   version="1.1"
   inkscape:version="0.48.0 r9654"
   sodipodi:docname="back.svg">
  <defs
     id="defs3">
    <linearGradient
       inkscape:collect="always"
       id="linearGradient4534">
      <stop
         style="stop-color:#000000;stop-opacity:1;"
         offset="0"
         id="stop4536" />
      <stop
         style="stop-color:#808080;stop-opacity:0"
         offset="1"
         id="stop4538" />
    </linearGradient>
    <linearGradient
       inkscape:collect="always"
       id="linearGradient4216">
      <stop
         style="stop-color:#d4d4d4;stop-opacity:1;"
         offset="0"
         id="stop4218" />
      <stop
         style="stop-color:#d4d4d4;stop-opacity:0;"
         offset="1"
         id="stop4220" />
    </linearGradient>
    <linearGradient
       inkscape:collect="always"
       id="linearGradient4174">
      <stop
         style="stop-color:#0a0a0a;stop-opacity:1"
         offset="0"
         id="stop4176" />
      <stop
         style="stop-color:#1a1a1a;stop-opacity:0;"
         offset="1"
         id="stop4178" />
    </linearGradient>
    <radialGradient
       inkscape:collect="always"
       xlink:href="#linearGradient4216"
       id="radialGradient4222"
       cx="-41.706799"
       cy="-238.97345"
       fx="-41.706799"
       fy="-238.97345"
       r="150.59055"
       gradientTransform="matrix(-3.1488761,2.0466012,-1.2927174,-1.9889594,-484.50664,-699.54976)"
       gradientUnits="userSpaceOnUse" />
    <linearGradient
       inkscape:collect="always"
       xlink:href="#linearGradient4534"
       id="linearGradient4540"
       x1="180.6852"
       y1="36.480133"
       x2="228.73914"
       y2="173.65884"
       gradientUnits="userSpaceOnUse" />
    <radialGradient
       inkscape:collect="always"
       xlink:href="#linearGradient4216"
       id="radialGradient3051"
       gradientUnits="userSpaceOnUse"
       gradientTransform="matrix(-3.1488761,2.0466012,-1.2927174,-1.9889594,-484.50664,-699.54976)"
       cx="-41.706799"
       cy="-238.97345"
       fx="-41.706799"
       fy="-238.97345"
       r="150.59055" />
    <radialGradient
       inkscape:collect="always"
       xlink:href="#linearGradient4174"
       id="radialGradient3065"
       gradientUnits="userSpaceOnUse"
       gradientTransform="matrix(1.5830208,0.13408185,-0.19455096,2.296942,106.76647,-375.21652)"
       cx="-97.232864"
       cy="252.35954"
       fx="-97.232864"
       fy="252.35954"
       r="150.59055" />
    <radialGradient
       inkscape:collect="always"
       xlink:href="#linearGradient4216"
       id="radialGradient3077"
       gradientUnits="userSpaceOnUse"
       gradientTransform="matrix(-3.1488761,2.0466012,-1.2927174,-1.9889594,-484.50664,-699.54976)"
       cx="-41.706799"
       cy="-238.97345"
       fx="-41.706799"
       fy="-238.97345"
       r="150.59055" />
    <radialGradient
       inkscape:collect="always"
       xlink:href="#linearGradient4216"
       id="radialGradient3079"
       gradientUnits="userSpaceOnUse"
       gradientTransform="matrix(-3.1488761,2.0466012,-1.2927174,-1.9889594,-484.50664,-699.54976)"
       cx="-41.706799"
       cy="-238.97345"
       fx="-41.706799"
       fy="-238.97345"
       r="150.59055" />
  </defs>
  <sodipodi:namedview
     id="base"
     pagecolor="#ffffff"
     bordercolor="#666666"
     borderopacity="1.0"
     inkscape:pageopacity="0.0"
     inkscape:pageshadow="2"
     inkscape:zoom="1.4142136"
     inkscape:cx="60.198495"
     inkscape:cy="157.43477"
     inkscape:document-units="mm"
     inkscape:current-layer="layer1"
     showgrid="false"
     showguides="true"
     inkscape:guide-bbox="true"
     inkscape:window-width="1280"
     inkscape:window-height="726"
     inkscape:window-x="0"
     inkscape:window-y="25"
     inkscape:window-maximized="1" />
  <metadata
     id="metadata2989">
    <rdf:RDF>
      <cc:Work
         rdf:about="">
        <dc:format>image/svg+xml</dc:format>
        <dc:type
           rdf:resource="http://purl.org/dc/dcmitype/StillImage" />
        <dc:title />
      </cc:Work>
    </rdf:RDF>
  </metadata>
  <g
     inkscape:label="Layer 1"
     inkscape:groupmode="layer"
     id="layer1">
    <g
       id="g3067"
       transform="matrix(0,-1,1,0,109.84251,256.26771)">
      <rect
         style="fill:#ffffff;fill-opacity:1;stroke:none"
         id="rect2994"
         width="301.18109"
         height="191.33858"
         x="-109.84251"
         y="-256.26773"
         rx="4"
         ry="4"
         transform="matrix(0,1,-1,0,0,0)" />
      <rect
         transform="matrix(0,1,-1,0,0,0)"
         ry="0"
         rx="0"
         y="-256.26773"
         x="-109.84251"
         height="191.33858"
         width="301.18109"
         id="rect4214"
         style="fill:url(#radialGradient3077);fill-opacity:1;stroke:none" />
      <path
         style="fill:#ffff00;fill-opacity:1;stroke:none"
         d="m 64.92913,71.822829 0,41.350391 51.17191,0 c 7.76361,-1.15009 14.16666,-6.31963 14.16666,-14.167962 l 0,-13.014429 c 0,-7.848334 -6.40305,-13.016578 -14.16666,-14.166667 z"
         id="path2999"
         inkscape:connector-curvature="0"
         sodipodi:nodetypes="cccsscc" />
      <text
         xml:space="preserve"
         style="font-size:37.85496521px;font-style:italic;font-variant:normal;font-weight:bold;font-stretch:normal;line-height:125%;letter-spacing:0px;word-spacing:0px;fill:#000000;fill-opacity:1;stroke:none;font-family:Carbon Block;-inkscape-font-specification:Carbon Block Bold Italic"
         x="71.406059"
         y="103.02991"
         id="text4490"
         sodipodi:linespacing="125%"><tspan
           sodipodi:role="line"
           id="tspan4492"
           x="71.406059"
           y="103.02991">DOE</tspan></text>
      <text
         sodipodi:linespacing="125%"
         id="text4530"
         y="95.172058"
         x="141.42136"
         style="font-size:14px;font-style:normal;font-variant:normal;font-weight:normal;font-stretch:normal;line-height:125%;letter-spacing:0px;word-spacing:0px;fill:#b6b6b6;fill-opacity:1;stroke:none;font-family:Arial;-inkscape-font-specification:Arial"
         xml:space="preserve"><tspan
           style="fill:#b6b6b6;fill-opacity:1"
           y="95.172058"
           x="141.42136"
           id="tspan4532"
           sodipodi:role="line">Designer</tspan></text>
      <path
         sodipodi:nodetypes="cccccsscc"
         inkscape:connector-curvature="0"
         id="rect4592"
         d="m -42.2029,-215.25554 6.095737,63.63961 -21.455844,49.25484 22.627417,-14.65132 10.27417,52.083257 -81.18109,0 c -2.216,0 -4,-1.784 -4,-4 l 0,-29.338577 z"
         style="fill:url(#radialGradient3079);fill-opacity:1;stroke:none"
         transform="matrix(0,1,-1,0,0,0)" />
    </g>
  </g>
</svg>
